ESM 206 Lab 5
…
Or by observation year, then by site:

lobster_yrsite <- lobster_parse_date %>% 
  count(obs_yr, site)

lobster_yrsite

## # A tibble: 35 x 3
##    obs_yr site      n
##     <dbl> <chr> <int>
##  1   2012 AQUE     38
##  2   2012 CARP     78
##  3   2012 IVEE     26
##  4   2012 MOHK     83
##  5   2012 NAPL      6
##  6   2013 AQUE     32
##  7   2013 CARP     93
##  8   2013 IVEE     40
##  9   2013 MOHK     15
## 10   2013 NAPL     63
## #  with 25 more rows
…
